G04 start of page 7 for group -4079 idx -4079 *
G04 Title: Shield for dsPIC-EL, topsilk *
G04 Creator: pcb 20140316 *
G04 CreationDate: Thu 27 Sep 2018 08:28:49 PM GMT UTC *
G04 For: jjmcd *
G04 Format: Gerber/RS-274X *
G04 PCB-Dimensions (mil): 3930.00 2255.00 *
G04 PCB-Coordinate-Origin: lower left *
%MOIN*%
%FSLAX25Y25*%
%LNTOPSILK*%
%ADD38C,0.0060*%
%ADD37C,0.0100*%
G54D37*X27000Y119000D02*X385000D01*
Y99000D02*X27000D01*
Y109000D02*X385000D01*
X245000Y195500D02*X325000D01*
X385000Y119000D02*Y99000D01*
X325000Y195500D02*Y175500D01*
G54D38*X115000Y21500D02*Y69000D01*
X135000D02*Y21500D01*
X125000Y69000D02*Y21500D01*
X135000Y22000D02*Y69000D01*
X115000D02*X155000D01*
Y22000D01*
G54D37*X190500Y182000D02*X188000Y184000D01*
X190500Y184500D02*Y182000D01*
X188000Y184000D02*X192000D01*
X178000D02*Y182000D01*
X180000D01*
X179500Y182500D01*
Y183500D02*Y182500D01*
Y183500D02*X180000Y184000D01*
X181500D01*
X182000Y183500D02*X181500Y184000D01*
X182000Y183500D02*Y182500D01*
X181500Y182000D02*X182000Y182500D01*
X168000Y183500D02*X168500Y184000D01*
X168000Y183500D02*Y182500D01*
X168500Y182000D02*X168000Y182500D01*
X168500Y182000D02*X171500D01*
X172000Y182500D01*
X169800Y183500D02*X170300Y184000D01*
X169800Y183500D02*Y182000D01*
X172000Y183500D02*Y182500D01*
Y183500D02*X171500Y184000D01*
X170300D02*X171500D01*
X162000Y182500D02*X158000Y184500D01*
Y182000D01*
X146500D02*X147000Y182500D01*
X145700Y182000D02*X146500D01*
X145700D02*X145000Y182700D01*
Y183300D02*Y182700D01*
Y183300D02*X145700Y184000D01*
X146500D01*
X147000Y183500D02*X146500Y184000D01*
X147000Y183500D02*Y182500D01*
X144300Y182000D02*X145000Y182700D01*
X143500Y182000D02*X144300D01*
X143500D02*X143000Y182500D01*
Y183500D02*Y182500D01*
Y183500D02*X143500Y184000D01*
X144300D01*
X145000Y183300D02*X144300Y184000D01*
X208500Y182000D02*X208000Y182500D01*
Y184000D02*Y182500D01*
Y184000D02*X208500Y184500D01*
X209500D01*
X212000Y182000D02*X209500Y184500D01*
X212000D02*Y182000D01*
X198500D02*X198000Y182500D01*
Y183500D02*Y182500D01*
Y183500D02*X198500Y184000D01*
X202000Y183500D02*X201500Y184000D01*
X202000Y183500D02*Y182500D01*
X201500Y182000D02*X202000Y182500D01*
X199800Y183500D02*Y182500D01*
X198500Y184000D02*X199300D01*
X200300D02*X201500D01*
X200300D02*X199800Y183500D01*
X199300Y184000D02*X199800Y183500D01*
X218000Y173000D02*Y171000D01*
Y172000D02*X222000D01*
Y174200D02*X218000Y176700D01*
Y174200D02*X222000Y176700D01*
X221500Y177900D02*X222000Y178400D01*
X218500Y177900D02*X221500D01*
X218500D02*X218000Y178400D01*
Y179400D02*Y178400D01*
Y179400D02*X218500Y179900D01*
X221500D01*
X222000Y179400D02*X221500Y179900D01*
X222000Y179400D02*Y178400D01*
X221000Y177900D02*X219000Y179900D01*
X218800Y183000D02*X218000Y183800D01*
X222000D01*
Y184500D02*Y183000D01*
X228000Y172000D02*Y170000D01*
Y172000D02*X228500Y172500D01*
X229500D01*
X230000Y172000D02*X229500Y172500D01*
X230000Y172000D02*Y170500D01*
X228000D02*X232000D01*
X230000Y171300D02*X232000Y172500D01*
Y173700D02*X228000Y176200D01*
Y173700D02*X232000Y176200D01*
X231500Y177400D02*X232000Y177900D01*
X228500Y177400D02*X231500D01*
X228500D02*X228000Y177900D01*
Y178900D02*Y177900D01*
Y178900D02*X228500Y179400D01*
X231500D01*
X232000Y178900D02*X231500Y179400D01*
X232000Y178900D02*Y177900D01*
X231000Y177400D02*X229000Y179400D01*
X231500Y182000D02*X232000Y182500D01*
X228500Y182000D02*X231500D01*
X228500D02*X228000Y182500D01*
Y183500D02*Y182500D01*
Y183500D02*X228500Y184000D01*
X231500D01*
X232000Y183500D02*X231500Y184000D01*
X232000Y183500D02*Y182500D01*
X231000Y182000D02*X229000Y184000D01*
X219900Y218200D02*Y215000D01*
X219500Y218200D02*X221100D01*
X221500Y217800D01*
Y217000D01*
X221100Y216600D02*X221500Y217000D01*
X219900Y216600D02*X221100D01*
X222860Y216200D02*Y215000D01*
Y216200D02*X223260Y216600D01*
X224060D01*
X222460D02*X222860Y216200D01*
X225020D02*Y215400D01*
Y216200D02*X225420Y216600D01*
X226220D01*
X226620Y216200D01*
Y215400D01*
X226220Y215000D02*X226620Y215400D01*
X225420Y215000D02*X226220D01*
X225020Y215400D02*X225420Y215000D01*
X227980Y218200D02*Y215400D01*
X228380Y215000D01*
X227580Y217000D02*X228380D01*
X229180Y216200D02*Y215400D01*
Y216200D02*X229580Y216600D01*
X230380D01*
X230780Y216200D01*
Y215400D01*
X230380Y215000D02*X230780Y215400D01*
X229580Y215000D02*X230380D01*
X229180Y215400D02*X229580Y215000D01*
X232140Y218200D02*Y215400D01*
X232540Y215000D01*
X231740Y217000D02*X232540D01*
X233340Y216600D02*Y215400D01*
X233740Y215000D01*
X234940Y216600D02*Y214200D01*
X234540Y213800D02*X234940Y214200D01*
X233740Y213800D02*X234540D01*
X233340Y214200D02*X233740Y213800D01*
Y215000D02*X234540D01*
X234940Y215400D01*
X236300Y216200D02*Y213800D01*
X235900Y216600D02*X236300Y216200D01*
X236700Y216600D01*
X237500D01*
X237900Y216200D01*
Y215400D01*
X237500Y215000D02*X237900Y215400D01*
X236700Y215000D02*X237500D01*
X236300Y215400D02*X236700Y215000D01*
X238860Y217400D02*Y217320D01*
Y216200D02*Y215000D01*
X240060Y216200D02*Y215000D01*
Y216200D02*X240460Y216600D01*
X240860D01*
X241260Y216200D01*
Y215000D01*
X239660Y216600D02*X240060Y216200D01*
X243420Y216600D02*X243820Y216200D01*
X242620Y216600D02*X243420D01*
X242220Y216200D02*X242620Y216600D01*
X242220Y216200D02*Y215400D01*
X242620Y215000D01*
X243420D01*
X243820Y215400D01*
X242220Y214200D02*X242620Y213800D01*
X243420D01*
X243820Y214200D01*
Y216600D02*Y214200D01*
X247820Y218200D02*X248220Y217800D01*
X246620Y218200D02*X247820D01*
X246220Y217800D02*X246620Y218200D01*
X246220Y217800D02*Y217000D01*
X246620Y216600D01*
X247820D01*
X248220Y216200D01*
Y215400D01*
X247820Y215000D02*X248220Y215400D01*
X246620Y215000D02*X247820D01*
X246220Y215400D02*X246620Y215000D01*
X249180Y218200D02*Y215000D01*
Y216200D02*X249580Y216600D01*
X250380D01*
X250780Y216200D01*
Y215000D01*
X251740Y217400D02*Y217320D01*
Y216200D02*Y215000D01*
X252940D02*X254140D01*
X252540Y215400D02*X252940Y215000D01*
X252540Y216200D02*Y215400D01*
Y216200D02*X252940Y216600D01*
X253740D01*
X254140Y216200D01*
X252540Y215800D02*X254140D01*
Y216200D02*Y215800D01*
X255100Y218200D02*Y215400D01*
X255500Y215000D01*
X257900Y218200D02*Y215000D01*
X257500D02*X257900Y215400D01*
X256700Y215000D02*X257500D01*
X256300Y215400D02*X256700Y215000D01*
X256300Y216200D02*Y215400D01*
Y216200D02*X256700Y216600D01*
X257500D01*
X257900Y216200D01*
X74000Y172000D02*X77000D01*
X74000D02*X73000Y172700D01*
Y173800D02*Y172700D01*
Y173800D02*X74000Y174500D01*
X77000D01*
X75000D02*Y172000D01*
X75500Y176200D02*X77000D01*
X75500D02*X75000Y176700D01*
Y177700D02*Y176700D01*
Y175700D02*X75500Y176200D01*
X77000Y180900D02*Y179400D01*
X76500Y178900D02*X77000Y179400D01*
X75500Y178900D02*X76500D01*
X75500D02*X75000Y179400D01*
Y180400D02*Y179400D01*
Y180400D02*X75500Y180900D01*
X76000D02*Y178900D01*
X75500Y180900D02*X76000D01*
X73500Y182600D02*X77000D01*
X73500D02*X73000Y183100D01*
Y183600D02*Y183100D01*
X75000D02*Y182100D01*
X53000Y177000D02*X53500Y177500D01*
X53000Y177000D02*Y175500D01*
X53500Y175000D02*X53000Y175500D01*
X53500Y175000D02*X54500D01*
X55000Y175500D01*
Y177000D02*Y175500D01*
Y177000D02*X55500Y177500D01*
X56500D01*
X57000Y177000D02*X56500Y177500D01*
X57000Y177000D02*Y175500D01*
X56500Y175000D02*X57000Y175500D01*
Y180700D02*Y179400D01*
X56300Y178700D02*X57000Y179400D01*
X53700Y178700D02*X56300D01*
X53700D02*X53000Y179400D01*
Y180700D02*Y179400D01*
Y181900D02*X57000D01*
Y183900D02*Y181900D01*
X62000Y176000D02*X62500Y176500D01*
X62000Y176000D02*Y174500D01*
X62500Y174000D02*X62000Y174500D01*
X62500Y174000D02*X63500D01*
X64000Y174500D01*
Y176000D02*Y174500D01*
Y176000D02*X64500Y176500D01*
X65500D01*
X66000Y176000D02*X65500Y176500D01*
X66000Y176000D02*Y174500D01*
X65500Y174000D02*X66000Y174500D01*
X62000Y178200D02*X66000D01*
X62000Y179500D02*X62700Y180200D01*
X65300D01*
X66000Y179500D02*X65300Y180200D01*
X66000Y179500D02*Y177700D01*
X62000Y179500D02*Y177700D01*
X63000Y181400D02*X66000D01*
X63000D02*X62000Y182100D01*
Y183200D02*Y182100D01*
Y183200D02*X63000Y183900D01*
X66000D01*
X64000D02*Y181400D01*
X16000Y116000D02*X17000Y112000D01*
X18000Y116000D01*
X21200D02*Y112000D01*
X20700D02*X21200Y112500D01*
X19700Y112000D02*X20700D01*
X19200Y112500D02*X19700Y112000D01*
X19200Y113500D02*Y112500D01*
Y113500D02*X19700Y114000D01*
X20700D01*
X21200Y113500D01*
X24400Y116000D02*Y112000D01*
X23900D02*X24400Y112500D01*
X22900Y112000D02*X23900D01*
X22400Y112500D02*X22900Y112000D01*
X22400Y113500D02*Y112500D01*
Y113500D02*X22900Y114000D01*
X23900D01*
X24400Y113500D01*
X15000Y106000D02*X16000Y102000D01*
X17000Y106000D01*
X18700Y102000D02*X20200D01*
X20700Y102500D01*
X20200Y103000D02*X20700Y102500D01*
X18700Y103000D02*X20200D01*
X18200Y103500D02*X18700Y103000D01*
X18200Y103500D02*X18700Y104000D01*
X20200D01*
X20700Y103500D01*
X18200Y102500D02*X18700Y102000D01*
X22400D02*X23900D01*
X24400Y102500D01*
X23900Y103000D02*X24400Y102500D01*
X22400Y103000D02*X23900D01*
X21900Y103500D02*X22400Y103000D01*
X21900Y103500D02*X22400Y104000D01*
X23900D01*
X24400Y103500D01*
X21900Y102500D02*X22400Y102000D01*
X11000Y214000D02*X13000D01*
X13500Y213500D01*
Y212500D01*
X13000Y212000D02*X13500Y212500D01*
X11500Y212000D02*X13000D01*
X11500Y214000D02*Y210000D01*
X12300Y212000D02*X13500Y210000D01*
X15200D02*X16700D01*
X14700Y210500D02*X15200Y210000D01*
X14700Y211500D02*Y210500D01*
Y211500D02*X15200Y212000D01*
X16200D01*
X16700Y211500D01*
X14700Y211000D02*X16700D01*
Y211500D02*Y211000D01*
X18400Y210000D02*X19900D01*
X20400Y210500D01*
X19900Y211000D02*X20400Y210500D01*
X18400Y211000D02*X19900D01*
X17900Y211500D02*X18400Y211000D01*
X17900Y211500D02*X18400Y212000D01*
X19900D01*
X20400Y211500D01*
X17900Y210500D02*X18400Y210000D01*
X22100D02*X23600D01*
X21600Y210500D02*X22100Y210000D01*
X21600Y211500D02*Y210500D01*
Y211500D02*X22100Y212000D01*
X23100D01*
X23600Y211500D01*
X21600Y211000D02*X23600D01*
Y211500D02*Y211000D01*
X25300Y214000D02*Y210500D01*
X25800Y210000D01*
X24800Y212500D02*X25800D01*
X83000Y177000D02*X83500Y177500D01*
X83000Y177000D02*Y175500D01*
X83500Y175000D02*X83000Y175500D01*
X83500Y175000D02*X86500D01*
X87000Y175500D01*
Y177000D02*Y175500D01*
Y177000D02*X86500Y177500D01*
X85500D02*X86500D01*
X85000Y177000D02*X85500Y177500D01*
X85000Y177000D02*Y176000D01*
X85500Y179200D02*X87000D01*
X85500D02*X85000Y179700D01*
Y180200D02*Y179700D01*
Y180200D02*X85500Y180700D01*
X87000D01*
X85000Y178700D02*X85500Y179200D01*
X83000Y183900D02*X87000D01*
Y183400D02*X86500Y183900D01*
X87000Y183400D02*Y182400D01*
X86500Y181900D02*X87000Y182400D01*
X85500Y181900D02*X86500D01*
X85500D02*X85000Y182400D01*
Y183400D02*Y182400D01*
Y183400D02*X85500Y183900D01*
X93800Y179000D02*X93000Y179800D01*
X97000D01*
Y180500D02*Y179000D01*
X93500Y181700D02*X93000Y182200D01*
Y183200D02*Y182200D01*
Y183200D02*X93500Y183700D01*
X97000Y183200D02*X96500Y183700D01*
X97000Y183200D02*Y182200D01*
X96500Y181700D02*X97000Y182200D01*
X94800Y183200D02*Y182200D01*
X93500Y183700D02*X94300D01*
X95300D02*X96500D01*
X95300D02*X94800Y183200D01*
X94300Y183700D02*X94800Y183200D01*
X103800Y179000D02*X103000Y179800D01*
X107000D01*
Y180500D02*Y179000D01*
X103500Y181700D02*X103000Y182200D01*
Y183700D02*Y182200D01*
Y183700D02*X103500Y184200D01*
X104500D01*
X107000Y181700D02*X104500Y184200D01*
X107000D02*Y181700D01*
X113800Y180000D02*X113000Y180800D01*
X117000D01*
Y181500D02*Y180000D01*
X113800Y182700D02*X113000Y183500D01*
X117000D01*
Y184200D02*Y182700D01*
X123800Y179000D02*X123000Y179800D01*
X127000D01*
Y180500D02*Y179000D01*
X126500Y181700D02*X127000Y182200D01*
X123500Y181700D02*X126500D01*
X123500D02*X123000Y182200D01*
Y183200D02*Y182200D01*
Y183200D02*X123500Y183700D01*
X126500D01*
X127000Y183200D02*X126500Y183700D01*
X127000Y183200D02*Y182200D01*
X126000Y181700D02*X124000Y183700D01*
X137000Y182500D02*X135000Y184000D01*
X133500D02*X135000D01*
X133000Y183500D02*X133500Y184000D01*
X133000Y183500D02*Y182500D01*
X133500Y182000D02*X133000Y182500D01*
X133500Y182000D02*X134500D01*
X135000Y182500D01*
Y184000D02*Y182500D01*
X189000Y31500D02*X192000D01*
X189000D02*X188000Y32200D01*
Y33300D02*Y32200D01*
Y33300D02*X189000Y34000D01*
X192000D01*
X190000D02*Y31500D01*
X188800Y35200D02*X188000Y36000D01*
X192000D01*
Y36700D02*Y35200D01*
X199000Y31500D02*X202000D01*
X199000D02*X198000Y32200D01*
Y33300D02*Y32200D01*
Y33300D02*X199000Y34000D01*
X202000D01*
X200000D02*Y31500D01*
X198500Y35200D02*X198000Y35700D01*
Y37200D02*Y35700D01*
Y37200D02*X198500Y37700D01*
X199500D01*
X202000Y35200D02*X199500Y37700D01*
X202000D02*Y35200D01*
X209000Y31500D02*X212000D01*
X209000D02*X208000Y32200D01*
Y33300D02*Y32200D01*
Y33300D02*X209000Y34000D01*
X212000D01*
X210000D02*Y31500D01*
X208500Y35200D02*X208000Y35700D01*
Y36700D02*Y35700D01*
Y36700D02*X208500Y37200D01*
X212000Y36700D02*X211500Y37200D01*
X212000Y36700D02*Y35700D01*
X211500Y35200D02*X212000Y35700D01*
X209800Y36700D02*Y35700D01*
X208500Y37200D02*X209300D01*
X210300D02*X211500D01*
X210300D02*X209800Y36700D01*
X209300Y37200D02*X209800Y36700D01*
X179000Y31500D02*X182000D01*
X179000D02*X178000Y32200D01*
Y33300D02*Y32200D01*
Y33300D02*X179000Y34000D01*
X182000D01*
X180000D02*Y31500D01*
X181500Y35200D02*X182000Y35700D01*
X178500Y35200D02*X181500D01*
X178500D02*X178000Y35700D01*
Y36700D02*Y35700D01*
Y36700D02*X178500Y37200D01*
X181500D01*
X182000Y36700D02*X181500Y37200D01*
X182000Y36700D02*Y35700D01*
X181000Y35200D02*X179000Y37200D01*
X108000Y34000D02*Y32000D01*
Y34000D02*X108500Y34500D01*
X109500D01*
X110000Y34000D02*X109500Y34500D01*
X110000Y34000D02*Y32500D01*
X108000D02*X112000D01*
X110000Y33300D02*X112000Y34500D01*
Y37700D02*Y36200D01*
X111500Y35700D02*X112000Y36200D01*
X110500Y35700D02*X111500D01*
X110500D02*X110000Y36200D01*
Y37200D02*Y36200D01*
Y37200D02*X110500Y37700D01*
X111000D02*Y35700D01*
X110500Y37700D02*X111000D01*
X112000Y40900D02*Y39400D01*
Y40900D02*X111500Y41400D01*
X111000Y40900D02*X111500Y41400D01*
X111000Y40900D02*Y39400D01*
X110500Y38900D02*X111000Y39400D01*
X110500Y38900D02*X110000Y39400D01*
Y40900D02*Y39400D01*
Y40900D02*X110500Y41400D01*
X111500Y38900D02*X112000Y39400D01*
Y44600D02*Y43100D01*
X111500Y42600D02*X112000Y43100D01*
X110500Y42600D02*X111500D01*
X110500D02*X110000Y43100D01*
Y44100D02*Y43100D01*
Y44100D02*X110500Y44600D01*
X111000D02*Y42600D01*
X110500Y44600D02*X111000D01*
X108000Y46300D02*X111500D01*
X112000Y46800D01*
X109500D02*Y45800D01*
X119000Y31500D02*X118500Y32000D01*
Y33000D02*Y32000D01*
Y33000D02*X119000Y33500D01*
X122500Y33000D02*X122000Y33500D01*
X122500Y33000D02*Y32000D01*
X122000Y31500D02*X122500Y32000D01*
X120300Y33000D02*Y32000D01*
X119000Y33500D02*X119800D01*
X120800D02*X122000D01*
X120800D02*X120300Y33000D01*
X119800Y33500D02*X120300Y33000D01*
X118500Y34700D02*X122500Y35700D01*
X118500Y36700D01*
X119000Y37900D02*X118500Y38400D01*
Y39400D02*Y38400D01*
Y39400D02*X119000Y39900D01*
X122500Y39400D02*X122000Y39900D01*
X122500Y39400D02*Y38400D01*
X122000Y37900D02*X122500Y38400D01*
X120300Y39400D02*Y38400D01*
X119000Y39900D02*X119800D01*
X120800D02*X122000D01*
X120800D02*X120300Y39400D01*
X119800Y39900D02*X120300Y39400D01*
X129500Y33500D02*Y31500D01*
X128500Y32500D02*X130500D01*
X127500Y36700D02*Y34700D01*
X129500D01*
X129000Y35200D01*
Y36200D02*Y35200D01*
Y36200D02*X129500Y36700D01*
X131000D01*
X131500Y36200D02*X131000Y36700D01*
X131500Y36200D02*Y35200D01*
X131000Y34700D02*X131500Y35200D01*
X138000Y33500D02*X138500Y34000D01*
X138000Y33500D02*Y32000D01*
X138500Y31500D02*X138000Y32000D01*
X138500Y31500D02*X141500D01*
X142000Y32000D01*
Y33500D02*Y32000D01*
Y33500D02*X141500Y34000D01*
X140500D02*X141500D01*
X140000Y33500D02*X140500Y34000D01*
X140000Y33500D02*Y32500D01*
X140500Y35700D02*X142000D01*
X140500D02*X140000Y36200D01*
Y36700D02*Y36200D01*
Y36700D02*X140500Y37200D01*
X142000D01*
X140000Y35200D02*X140500Y35700D01*
X138000Y40400D02*X142000D01*
Y39900D02*X141500Y40400D01*
X142000Y39900D02*Y38900D01*
X141500Y38400D02*X142000Y38900D01*
X140500Y38400D02*X141500D01*
X140500D02*X140000Y38900D01*
Y39900D02*Y38900D01*
Y39900D02*X140500Y40400D01*
X148000Y33500D02*X148500Y34000D01*
X148000Y33500D02*Y32000D01*
X148500Y31500D02*X148000Y32000D01*
X148500Y31500D02*X151500D01*
X152000Y32000D01*
Y33500D02*Y32000D01*
Y33500D02*X151500Y34000D01*
X150500D02*X151500D01*
X150000Y33500D02*X150500Y34000D01*
X150000Y33500D02*Y32500D01*
X150500Y35700D02*X152000D01*
X150500D02*X150000Y36200D01*
Y36700D02*Y36200D01*
Y36700D02*X150500Y37200D01*
X152000D01*
X150000Y35200D02*X150500Y35700D01*
X148000Y40400D02*X152000D01*
Y39900D02*X151500Y40400D01*
X152000Y39900D02*Y38900D01*
X151500Y38400D02*X152000Y38900D01*
X150500Y38400D02*X151500D01*
X150500D02*X150000Y38900D01*
Y39900D02*Y38900D01*
Y39900D02*X150500Y40400D01*
X219000Y31500D02*X222000D01*
X219000D02*X218000Y32200D01*
Y33300D02*Y32200D01*
Y33300D02*X219000Y34000D01*
X222000D01*
X220000D02*Y31500D01*
X220500Y35200D02*X218000Y37200D01*
X220500Y37700D02*Y35200D01*
X218000Y37200D02*X222000D01*
X229000Y31500D02*X232000D01*
X229000D02*X228000Y32200D01*
Y33300D02*Y32200D01*
Y33300D02*X229000Y34000D01*
X232000D01*
X230000D02*Y31500D01*
X228000Y37200D02*Y35200D01*
X230000D01*
X229500Y35700D01*
Y36700D02*Y35700D01*
Y36700D02*X230000Y37200D01*
X231500D01*
X232000Y36700D02*X231500Y37200D01*
X232000Y36700D02*Y35700D01*
X231500Y35200D02*X232000Y35700D01*
X249000Y31000D02*X252000D01*
X249000D02*X248000Y31700D01*
Y32800D02*Y31700D01*
Y32800D02*X249000Y33500D01*
X252000D01*
X250000D02*Y31000D01*
X252000Y35200D02*X248000Y37200D01*
Y34700D01*
X239000Y31500D02*X242000D01*
X239000D02*X238000Y32200D01*
Y33300D02*Y32200D01*
Y33300D02*X239000Y34000D01*
X242000D01*
X240000D02*Y31500D01*
X238000Y36700D02*X238500Y37200D01*
X238000Y36700D02*Y35700D01*
X238500Y35200D02*X238000Y35700D01*
X238500Y35200D02*X241500D01*
X242000Y35700D01*
X239800Y36700D02*X240300Y37200D01*
X239800Y36700D02*Y35200D01*
X242000Y36700D02*Y35700D01*
Y36700D02*X241500Y37200D01*
X240300D02*X241500D01*
X99500Y31500D02*X102500D01*
X99500D02*X98500Y32200D01*
Y33300D02*Y32200D01*
Y33300D02*X99500Y34000D01*
X102500D01*
X100500D02*Y31500D01*
X102500Y35700D02*X98500Y37700D01*
Y35200D01*
X89000Y32000D02*X92000D01*
X89000D02*X88000Y32700D01*
Y33800D02*Y32700D01*
Y33800D02*X89000Y34500D01*
X92000D01*
X90000D02*Y32000D01*
X88000Y37200D02*X88500Y37700D01*
X88000Y37200D02*Y36200D01*
X88500Y35700D02*X88000Y36200D01*
X88500Y35700D02*X91500D01*
X92000Y36200D01*
X89800Y37200D02*X90300Y37700D01*
X89800Y37200D02*Y35700D01*
X92000Y37200D02*Y36200D01*
Y37200D02*X91500Y37700D01*
X90300D02*X91500D01*
X6000Y17500D02*Y14500D01*
X6750Y11500D01*
X8250Y14500D01*
X9750Y11500D01*
X10500Y14500D01*
Y17500D02*Y14500D01*
X12300Y11500D02*X15300D01*
X16050Y12250D01*
Y14050D02*Y12250D01*
X15300Y14800D02*X16050Y14050D01*
X13050Y14800D02*X15300D01*
X13050Y17500D02*Y11500D01*
X12300Y17500D02*X15300D01*
X16050Y16750D01*
Y15550D01*
X15300Y14800D02*X16050Y15550D01*
X17850Y12250D02*X18600Y11500D01*
X17850Y13450D02*Y12250D01*
Y13450D02*X18900Y14500D01*
X19800D01*
X20850Y13450D01*
Y12250D01*
X20100Y11500D02*X20850Y12250D01*
X18600Y11500D02*X20100D01*
X17850Y15550D02*X18900Y14500D01*
X17850Y16750D02*Y15550D01*
Y16750D02*X18600Y17500D01*
X20100D01*
X20850Y16750D01*
Y15550D01*
X19800Y14500D02*X20850Y15550D01*
X22650Y17500D02*X25650D01*
X26400Y16750D01*
Y15250D01*
X25650Y14500D02*X26400Y15250D01*
X23400Y14500D02*X25650D01*
X23400Y17500D02*Y11500D01*
X24600Y14500D02*X26400Y11500D01*
X29250D02*X31200D01*
X28200Y12550D02*X29250Y11500D01*
X28200Y16450D02*Y12550D01*
Y16450D02*X29250Y17500D01*
X31200D01*
X33000D02*X36000D01*
X36750Y16750D01*
Y15250D01*
X36000Y14500D02*X36750Y15250D01*
X33750Y14500D02*X36000D01*
X33750Y17500D02*Y11500D01*
X34950Y14500D02*X36750Y11500D01*
X41250Y16300D02*X42450Y17500D01*
Y11500D01*
X41250D02*X43500D01*
X45300Y12250D02*X46050Y11500D01*
X45300Y13450D02*Y12250D01*
Y13450D02*X46350Y14500D01*
X47250D01*
X48300Y13450D01*
Y12250D01*
X47550Y11500D02*X48300Y12250D01*
X46050Y11500D02*X47550D01*
X45300Y15550D02*X46350Y14500D01*
X45300Y16750D02*Y15550D01*
Y16750D02*X46050Y17500D01*
X47550D01*
X48300Y16750D01*
Y15550D01*
X47250Y14500D02*X48300Y15550D01*
X50100Y12250D02*X50850Y11500D01*
X50100Y16750D02*Y12250D01*
Y16750D02*X50850Y17500D01*
X52350D01*
X53100Y16750D01*
Y12250D01*
X52350Y11500D02*X53100Y12250D01*
X50850Y11500D02*X52350D01*
X50100Y13000D02*X53100Y16000D01*
X55650Y11500D02*X57900Y14500D01*
Y16750D02*Y14500D01*
X57150Y17500D02*X57900Y16750D01*
X55650Y17500D02*X57150D01*
X54900Y16750D02*X55650Y17500D01*
X54900Y16750D02*Y15250D01*
X55650Y14500D01*
X57900D01*
X59700Y16750D02*X60450Y17500D01*
X62700D01*
X63450Y16750D01*
Y15250D01*
X59700Y11500D02*X63450Y15250D01*
X59700Y11500D02*X63450D01*
X66000D02*X69000Y17500D01*
X65250D02*X69000D01*
X5500Y7500D02*X6000Y8000D01*
X7500D01*
X8000Y7500D01*
Y6500D01*
X5500Y4000D02*X8000Y6500D01*
X5500Y4000D02*X8000D01*
X9200Y7200D02*X10000Y8000D01*
Y4000D01*
X9200D02*X10700D01*
X11900Y7200D02*X12700Y8000D01*
Y4000D01*
X11900D02*X13400D01*
X14600Y7200D02*X15400Y8000D01*
Y4000D01*
X14600D02*X16100D01*
X17800D02*X19300D01*
X17300Y4500D02*X17800Y4000D01*
X17300Y5500D02*Y4500D01*
Y5500D02*X17800Y6000D01*
X18800D01*
X19300Y5500D01*
X17300Y5000D02*X19300D01*
Y5500D02*Y5000D01*
X22000Y6000D02*X22500Y5500D01*
X21000Y6000D02*X22000D01*
X20500Y5500D02*X21000Y6000D01*
X20500Y5500D02*Y4500D01*
X21000Y4000D01*
X22500Y6000D02*Y4500D01*
X23000Y4000D01*
X21000D02*X22000D01*
X22500Y4500D01*
X24200D02*X24700Y4000D01*
X24200Y7500D02*Y4500D01*
Y7500D02*X24700Y8000D01*
X25700D01*
X26200Y7500D01*
Y4500D01*
X25700Y4000D02*X26200Y4500D01*
X24700Y4000D02*X25700D01*
X24200Y5000D02*X26200Y7000D01*
X27400Y8000D02*Y4000D01*
Y4500D02*X27900Y4000D01*
X28900D01*
X29400Y4500D01*
Y5500D02*Y4500D01*
X28900Y6000D02*X29400Y5500D01*
X27900Y6000D02*X28900D01*
X27400Y5500D02*X27900Y6000D01*
X30600Y7500D02*X31100Y8000D01*
X32600D01*
X33100Y7500D01*
Y6500D01*
X30600Y4000D02*X33100Y6500D01*
X30600Y4000D02*X33100D01*
X34800Y6000D02*X36300D01*
X34300Y5500D02*X34800Y6000D01*
X34300Y5500D02*Y4500D01*
X34800Y4000D01*
X36300D01*
X37500Y5500D02*X39500Y8000D01*
X37500Y5500D02*X40000D01*
X39500Y8000D02*Y4000D01*
X43200Y8000D02*Y4000D01*
X42700D02*X43200Y4500D01*
X41700Y4000D02*X42700D01*
X41200Y4500D02*X41700Y4000D01*
X41200Y5500D02*Y4500D01*
Y5500D02*X41700Y6000D01*
X42700D01*
X43200Y5500D01*
X44900Y4000D02*X46400D01*
X44400Y4500D02*X44900Y4000D01*
X44400Y5500D02*Y4500D01*
Y5500D02*X44900Y6000D01*
X45900D01*
X46400Y5500D01*
X44400Y5000D02*X46400D01*
Y5500D02*Y5000D01*
X48100Y7500D02*Y4000D01*
Y7500D02*X48600Y8000D01*
X49100D01*
X47600Y6000D02*X48600D01*
X51600Y8000D02*X52100Y7500D01*
X50600Y8000D02*X51600D01*
X50100Y7500D02*X50600Y8000D01*
X50100Y7500D02*Y4500D01*
X50600Y4000D01*
X51600Y6200D02*X52100Y5700D01*
X50100Y6200D02*X51600D01*
X50600Y4000D02*X51600D01*
X52100Y4500D01*
Y5700D02*Y4500D01*
X53800Y4000D02*X55800Y8000D01*
X53300D02*X55800D01*
X57000D02*X59000D01*
X57000D02*Y6000D01*
X57500Y6500D01*
X58500D01*
X59000Y6000D01*
Y4500D01*
X58500Y4000D02*X59000Y4500D01*
X57500Y4000D02*X58500D01*
X57000Y4500D02*X57500Y4000D01*
X60200Y7200D02*X61000Y8000D01*
Y4000D01*
X60200D02*X61700D01*
X64900Y8000D02*Y4000D01*
X64400D02*X64900Y4500D01*
X63400Y4000D02*X64400D01*
X62900Y4500D02*X63400Y4000D01*
X62900Y5500D02*Y4500D01*
Y5500D02*X63400Y6000D01*
X64400D01*
X64900Y5500D01*
X66100Y8000D02*Y4000D01*
Y4500D02*X66600Y4000D01*
X67600D01*
X68100Y4500D01*
Y5500D02*Y4500D01*
X67600Y6000D02*X68100Y5500D01*
X66600Y6000D02*X67600D01*
X66100Y5500D02*X66600Y6000D01*
X70800Y8000D02*X71300Y7500D01*
X69800Y8000D02*X70800D01*
X69300Y7500D02*X69800Y8000D01*
X69300Y7500D02*Y4500D01*
X69800Y4000D01*
X70800Y6200D02*X71300Y5700D01*
X69300Y6200D02*X70800D01*
X69800Y4000D02*X70800D01*
X71300Y4500D01*
Y5700D02*Y4500D01*
X74000Y8000D02*X74500Y7500D01*
X73000Y8000D02*X74000D01*
X72500Y7500D02*X73000Y8000D01*
X72500Y7500D02*Y4500D01*
X73000Y4000D01*
X74000Y6200D02*X74500Y5700D01*
X72500Y6200D02*X74000D01*
X73000Y4000D02*X74000D01*
X74500Y4500D01*
Y5700D02*Y4500D01*
X76200Y4000D02*X78200Y8000D01*
X75700D02*X78200D01*
X80900Y6000D02*X81400Y5500D01*
X79900Y6000D02*X80900D01*
X79400Y5500D02*X79900Y6000D01*
X79400Y5500D02*Y4500D01*
X79900Y4000D01*
X81400Y6000D02*Y4500D01*
X81900Y4000D01*
X79900D02*X80900D01*
X81400Y4500D01*
X83100D02*X83600Y4000D01*
X83100Y7500D02*Y4500D01*
Y7500D02*X83600Y8000D01*
X84600D01*
X85100Y7500D01*
Y4500D01*
X84600Y4000D02*X85100Y4500D01*
X83600Y4000D02*X84600D01*
X83100Y5000D02*X85100Y7000D01*
X88300Y8000D02*Y4000D01*
X87800D02*X88300Y4500D01*
X86800Y4000D02*X87800D01*
X86300Y4500D02*X86800Y4000D01*
X86300Y5500D02*Y4500D01*
Y5500D02*X86800Y6000D01*
X87800D01*
X88300Y5500D01*
X89500D02*X91500Y8000D01*
X89500Y5500D02*X92000D01*
X91500Y8000D02*Y4000D01*
X94700Y6000D02*X95200Y5500D01*
X93700Y6000D02*X94700D01*
X93200Y5500D02*X93700Y6000D01*
X93200Y5500D02*Y4500D01*
X93700Y4000D01*
X95200Y6000D02*Y4500D01*
X95700Y4000D01*
X93700D02*X94700D01*
X95200Y4500D01*
X96900D02*X97400Y4000D01*
X96900Y7500D02*Y4500D01*
Y7500D02*X97400Y8000D01*
X98400D01*
X98900Y7500D01*
Y4500D01*
X98400Y4000D02*X98900Y4500D01*
X97400Y4000D02*X98400D01*
X96900Y5000D02*X98900Y7000D01*
X101600Y8000D02*X102100Y7500D01*
X100600Y8000D02*X101600D01*
X100100Y7500D02*X100600Y8000D01*
X100100Y7500D02*Y4500D01*
X100600Y4000D01*
X101600Y6200D02*X102100Y5700D01*
X100100Y6200D02*X101600D01*
X100600Y4000D02*X101600D01*
X102100Y4500D01*
Y5700D02*Y4500D01*
X103300Y8000D02*X105300D01*
X103300D02*Y6000D01*
X103800Y6500D01*
X104800D01*
X105300Y6000D01*
Y4500D01*
X104800Y4000D02*X105300Y4500D01*
X103800Y4000D02*X104800D01*
X103300Y4500D02*X103800Y4000D01*
X106500Y7200D02*X107300Y8000D01*
Y4000D01*
X106500D02*X108000D01*
X109700D02*X111200D01*
X109200Y4500D02*X109700Y4000D01*
X109200Y5500D02*Y4500D01*
Y5500D02*X109700Y6000D01*
X110700D01*
X111200Y5500D01*
X109200Y5000D02*X111200D01*
Y5500D02*Y5000D01*
X112400Y7200D02*X113200Y8000D01*
Y4000D01*
X112400D02*X113900D01*
X115600D02*X117100D01*
X115100Y4500D02*X115600Y4000D01*
X115100Y5500D02*Y4500D01*
Y5500D02*X115600Y6000D01*
X116600D01*
X117100Y5500D01*
X115100Y5000D02*X117100D01*
Y5500D02*Y5000D01*
X118300Y5500D02*X120300Y8000D01*
X118300Y5500D02*X120800D01*
X120300Y8000D02*Y4000D01*
X122000Y7200D02*X122800Y8000D01*
Y4000D01*
X122000D02*X123500D01*
X126700Y8000D02*Y4000D01*
X126200D02*X126700Y4500D01*
X125200Y4000D02*X126200D01*
X124700Y4500D02*X125200Y4000D01*
X124700Y5500D02*Y4500D01*
Y5500D02*X125200Y6000D01*
X126200D01*
X126700Y5500D01*
X127900Y8000D02*X129900D01*
X127900D02*Y6000D01*
X128400Y6500D01*
X129400D01*
X129900Y6000D01*
Y4500D01*
X129400Y4000D02*X129900Y4500D01*
X128400Y4000D02*X129400D01*
X127900Y4500D02*X128400Y4000D01*
X131100Y8000D02*Y4000D01*
Y4500D02*X131600Y4000D01*
X132600D01*
X133100Y4500D01*
Y5500D02*Y4500D01*
X132600Y6000D02*X133100Y5500D01*
X131600Y6000D02*X132600D01*
X131100Y5500D02*X131600Y6000D01*
X245000Y198000D02*X325000D01*
Y208000D02*Y198000D01*
X245000Y208000D02*X325000D01*
X245000D02*Y198000D01*
X255000Y208000D02*Y198000D01*
X245000Y208000D02*X255000D01*
X245000Y195000D02*Y175000D01*
X255000D01*
Y195000D02*Y175000D01*
X265000D01*
X305000Y195000D02*Y175000D01*
X315000D01*
Y195000D02*Y175000D01*
X325000D01*
X265000Y195000D02*Y175000D01*
X275000D01*
Y195000D02*Y175000D01*
X285000D01*
Y195000D02*Y175000D01*
X295000D01*
Y195000D02*Y175000D01*
X305000D01*
X155000Y198000D02*X235000D01*
Y208000D02*Y198000D01*
X155000Y208000D02*X235000D01*
X155000D02*Y198000D01*
X165000Y208000D02*Y198000D01*
X155000Y208000D02*X165000D01*
X50000Y198000D02*X150000D01*
Y208000D02*Y198000D01*
X50000Y208000D02*X150000D01*
X50000D02*Y198000D01*
X60000Y208000D02*Y198000D01*
X50000Y208000D02*X60000D01*
X45000D02*X145000D01*
Y218000D02*Y208000D01*
X45000Y218000D02*X145000D01*
X45000D02*Y208000D01*
X55000Y218000D02*Y208000D01*
X45000Y218000D02*X55000D01*
X9000Y207000D02*X33000D01*
Y183000D01*
X9000D01*
Y207000D01*
X85000Y10000D02*X165000D01*
Y20000D02*Y10000D01*
X85000Y20000D02*X165000D01*
X85000D02*Y10000D01*
X95000Y20000D02*Y10000D01*
X85000Y20000D02*X95000D01*
X175000Y10000D02*X255000D01*
Y20000D02*Y10000D01*
X175000Y20000D02*X255000D01*
X175000D02*Y10000D01*
X185000Y20000D02*Y10000D01*
X175000Y20000D02*X185000D01*
M02*
