G04 start of page 2 for group 0 idx 0 *
G04 Title: Shield for dsPIC-EL, component *
G04 Creator: pcb 20140316 *
G04 CreationDate: Thu 27 Sep 2018 08:28:49 PM GMT UTC *
G04 For: jjmcd *
G04 Format: Gerber/RS-274X *
G04 PCB-Dimensions (mil): 3930.00 2255.00 *
G04 PCB-Coordinate-Origin: lower left *
%MOIN*%
%FSLAX25Y25*%
%LNTOP*%
%ADD18C,0.0380*%
%ADD17C,0.0200*%
%ADD16C,0.0360*%
%ADD15C,0.0500*%
%ADD14C,0.0600*%
%ADD13C,0.0001*%
%ADD12C,0.0100*%
%ADD11C,0.0250*%
G54D11*X280000Y180000D02*Y203000D01*
X290000Y180000D02*Y203000D01*
X300000Y180000D02*Y203000D01*
X310000Y180000D02*Y203000D01*
X250000Y180000D02*Y203000D01*
X260000Y180000D02*Y203000D01*
X270000Y180000D02*Y203000D01*
X320000Y180000D02*Y203000D01*
X130000Y15000D02*X120000Y5000D01*
G54D12*X110000Y15000D02*X105000Y10000D01*
G54D11*X140000Y15000D02*Y54000D01*
X150000Y15000D02*Y54000D01*
X130000Y15000D02*Y54000D01*
X120000Y15000D02*Y54000D01*
Y5000D02*X6000D01*
G54D12*X105000Y10000D02*X13000D01*
G54D11*X6000Y5000D02*X3000Y8000D01*
Y110000D01*
X7000Y114000D01*
X40000D01*
G54D12*X13000Y10000D02*X11000Y12000D01*
Y108000D01*
G54D13*G36*
X52000Y206000D02*Y200000D01*
X58000D01*
Y206000D01*
X52000D01*
G37*
G54D14*X65000Y203000D03*
G54D13*G36*
X47000Y216000D02*Y210000D01*
X53000D01*
Y216000D01*
X47000D01*
G37*
G54D14*X60000Y213000D03*
X70000D03*
G54D13*G36*
X8000Y208000D02*Y202000D01*
X14000D01*
Y208000D01*
X8000D01*
G37*
G54D14*X11000Y185000D03*
X31000D03*
Y205000D03*
X75000Y203000D03*
X85000D03*
X95000D03*
X80000Y213000D03*
X90000D03*
X100000D03*
X110000D03*
X105000Y203000D03*
X115000D03*
X125000D03*
X135000D03*
X145000D03*
G54D13*G36*
X142062Y192904D02*Y186904D01*
X148062D01*
Y192904D01*
X142062D01*
G37*
G36*
X132022D02*Y186904D01*
X138022D01*
Y192904D01*
X132022D01*
G37*
G36*
X157000Y193000D02*Y187000D01*
X163000D01*
Y193000D01*
X157000D01*
G37*
G54D14*X120000Y213000D03*
X130000D03*
X140000D03*
G54D13*G36*
X121903Y193437D02*Y187437D01*
X127903D01*
Y193437D01*
X121903D01*
G37*
G36*
X112081Y193218D02*Y187218D01*
X118081D01*
Y193218D01*
X112081D01*
G37*
G36*
X102041Y193000D02*Y187000D01*
X108041D01*
Y193000D01*
X102041D01*
G37*
G36*
X92000D02*Y187000D01*
X98000D01*
Y193000D01*
X92000D01*
G37*
G36*
X81903Y193437D02*Y187437D01*
X87903D01*
Y193437D01*
X81903D01*
G37*
G36*
X72081Y193218D02*Y187218D01*
X78081D01*
Y193218D01*
X72081D01*
G37*
G36*
X62041Y193000D02*Y187000D01*
X68041D01*
Y193000D01*
X62041D01*
G37*
G36*
X52000D02*Y187000D01*
X58000D01*
Y193000D01*
X52000D01*
G37*
G54D14*X120000Y15000D03*
X130000D03*
X140000D03*
X150000D03*
G54D13*G36*
X87000Y18000D02*Y12000D01*
X93000D01*
Y18000D01*
X87000D01*
G37*
G54D14*X100000Y15000D03*
X110000D03*
X160000D03*
G54D13*G36*
X87000Y30000D02*Y24000D01*
X93000D01*
Y30000D01*
X87000D01*
G37*
G36*
X97000D02*Y24000D01*
X103000D01*
Y30000D01*
X97000D01*
G37*
G36*
X107000D02*Y24000D01*
X113000D01*
Y30000D01*
X107000D01*
G37*
G36*
X117000D02*Y24000D01*
X123000D01*
Y30000D01*
X117000D01*
G37*
G36*
X127000D02*Y24000D01*
X133000D01*
Y30000D01*
X127000D01*
G37*
G36*
X137000D02*Y24000D01*
X143000D01*
Y30000D01*
X137000D01*
G37*
G36*
X147000D02*Y24000D01*
X153000D01*
Y30000D01*
X147000D01*
G37*
G36*
X157000D02*Y24000D01*
X163000D01*
Y30000D01*
X157000D01*
G37*
G36*
X177000Y18000D02*Y12000D01*
X183000D01*
Y18000D01*
X177000D01*
G37*
G36*
Y30000D02*Y24000D01*
X183000D01*
Y30000D01*
X177000D01*
G37*
G54D14*X190000Y15000D03*
G54D13*G36*
X187000Y30000D02*Y24000D01*
X193000D01*
Y30000D01*
X187000D01*
G37*
G36*
X197000D02*Y24000D01*
X203000D01*
Y30000D01*
X197000D01*
G37*
G54D14*X200000Y15000D03*
X210000D03*
X220000D03*
X230000D03*
X240000D03*
X250000D03*
G54D13*G36*
X207000Y30000D02*Y24000D01*
X213000D01*
Y30000D01*
X207000D01*
G37*
G36*
X217000D02*Y24000D01*
X223000D01*
Y30000D01*
X217000D01*
G37*
G36*
X227000D02*Y24000D01*
X233000D01*
Y30000D01*
X227000D01*
G37*
G36*
X237000D02*Y24000D01*
X243000D01*
Y30000D01*
X237000D01*
G37*
G36*
X247000D02*Y24000D01*
X253000D01*
Y30000D01*
X247000D01*
G37*
G36*
Y206000D02*Y200000D01*
X253000D01*
Y206000D01*
X247000D01*
G37*
G36*
Y193000D02*Y187000D01*
X253000D01*
Y193000D01*
X247000D01*
G37*
G54D14*X250000Y180000D03*
X260000Y203000D03*
G54D13*G36*
X257000Y193000D02*Y187000D01*
X263000D01*
Y193000D01*
X257000D01*
G37*
G54D14*X260000Y180000D03*
X270000Y203000D03*
G54D13*G36*
X267000Y193000D02*Y187000D01*
X273000D01*
Y193000D01*
X267000D01*
G37*
G54D14*X270000Y180000D03*
G54D13*G36*
X157000Y206000D02*Y200000D01*
X163000D01*
Y206000D01*
X157000D01*
G37*
G54D14*X170000Y203000D03*
X180000D03*
X190000D03*
X200000D03*
X210000D03*
X220000D03*
X230000D03*
X280000D03*
G54D13*G36*
X277000Y193000D02*Y187000D01*
X283000D01*
Y193000D01*
X277000D01*
G37*
G54D14*X280000Y180000D03*
X290000Y203000D03*
G54D13*G36*
X287000Y193000D02*Y187000D01*
X293000D01*
Y193000D01*
X287000D01*
G37*
G54D14*X300000Y203000D03*
X310000D03*
X320000D03*
X290000Y180000D03*
G54D13*G36*
X297000Y193000D02*Y187000D01*
X303000D01*
Y193000D01*
X297000D01*
G37*
G54D14*X300000Y180000D03*
G54D13*G36*
X307000Y193000D02*Y187000D01*
X313000D01*
Y193000D01*
X307000D01*
G37*
G54D14*X310000Y180000D03*
G54D13*G36*
X317000Y193000D02*Y187000D01*
X323000D01*
Y193000D01*
X317000D01*
G37*
G54D14*X320000Y180000D03*
G54D13*G36*
X167000Y193000D02*Y187000D01*
X173000D01*
Y193000D01*
X167000D01*
G37*
G36*
X177000D02*Y187000D01*
X183000D01*
Y193000D01*
X177000D01*
G37*
G36*
X187000D02*Y187000D01*
X193000D01*
Y193000D01*
X187000D01*
G37*
G36*
X197000D02*Y187000D01*
X203000D01*
Y193000D01*
X197000D01*
G37*
G36*
X207000D02*Y187000D01*
X213000D01*
Y193000D01*
X207000D01*
G37*
G36*
X217000D02*Y187000D01*
X223000D01*
Y193000D01*
X217000D01*
G37*
G36*
X227000D02*Y187000D01*
X233000D01*
Y193000D01*
X227000D01*
G37*
G54D15*X90000Y145000D02*Y123000D01*
X80000Y145000D02*Y123000D01*
X70000Y145000D02*Y123000D01*
X60000Y145000D02*Y123000D01*
Y164000D02*Y153000D01*
X69000Y164000D02*X91000D01*
X69000Y154000D02*X91000D01*
X100000Y135000D02*Y123000D01*
Y165000D02*Y153000D01*
X170000Y145000D02*Y123000D01*
X160000Y145000D02*Y123000D01*
X190000Y145000D02*Y123000D01*
X180000Y145000D02*Y123000D01*
Y164000D02*Y153000D01*
X150000Y145000D02*Y123000D01*
X140000Y164000D02*Y153000D01*
X149000Y154000D02*X171000D01*
X149000Y164000D02*X171000D01*
X190000Y165000D02*Y153000D01*
X50000Y145000D02*Y123000D01*
X19000Y124000D02*X41000D01*
X19000Y134000D02*X41000D01*
X19000Y144000D02*X41000D01*
X19000Y154000D02*X41000D01*
X19000Y164000D02*X41000D01*
X19000Y174000D02*X41000D01*
X50000Y175000D02*Y153000D01*
X140000Y145000D02*Y123000D01*
X130000Y145000D02*Y123000D01*
X109000Y144000D02*X121000D01*
X109000Y154000D02*X131000D01*
X109000Y164000D02*X131000D01*
X110000Y135000D02*Y123000D01*
X120000Y135000D02*Y123000D01*
X180000Y95000D02*Y73000D01*
Y64000D02*Y53000D01*
X220000Y64000D02*Y53000D01*
X170000Y95000D02*Y73000D01*
X160000Y95000D02*Y73000D01*
X150000Y95000D02*Y73000D01*
X149000Y104000D02*X171000D01*
X169000D02*X191000D01*
X149000Y114000D02*X171000D01*
X169000D02*X191000D01*
X120000Y65000D02*Y43000D01*
X130000Y65000D02*Y43000D01*
X140000Y65000D02*Y43000D01*
X150000Y65000D02*Y43000D01*
X160000Y65000D02*Y43000D01*
X170000Y65000D02*Y43000D01*
X179000Y44000D02*X191000D01*
X140000Y95000D02*Y73000D01*
X130000Y95000D02*Y73000D01*
X120000Y95000D02*Y73000D01*
X110000Y95000D02*Y73000D01*
X100000Y95000D02*Y73000D01*
X109000Y104000D02*X131000D01*
X129000D02*X151000D01*
X109000Y114000D02*X131000D01*
X129000D02*X151000D01*
X90000Y95000D02*Y73000D01*
X80000Y95000D02*Y73000D01*
X49000Y114000D02*X71000D01*
X69000D02*X91000D01*
X89000D02*X111000D01*
X49000Y104000D02*X71000D01*
X69000D02*X91000D01*
X89000D02*X111000D01*
X100000Y64000D02*Y53000D01*
X80000Y44000D02*Y33000D01*
X70000Y44000D02*Y33000D01*
Y24000D02*X81000D01*
X60000Y45000D02*Y23000D01*
X89000Y44000D02*X101000D01*
X70000Y95000D02*Y73000D01*
X60000Y95000D02*Y73000D01*
X50000Y95000D02*Y73000D01*
X60000Y64000D02*Y53000D01*
X68000Y54000D02*X90000D01*
X69000Y64000D02*X91000D01*
X29000Y104000D02*X51000D01*
X29000Y114000D02*X51000D01*
X19000Y94000D02*X41000D01*
X19000Y84000D02*X41000D01*
X19000Y74000D02*X41000D01*
X19000Y64000D02*X41000D01*
X19000Y54000D02*X41000D01*
X50000Y65000D02*Y43000D01*
X19000Y44000D02*X41000D01*
X19000Y34000D02*X41000D01*
X19000Y24000D02*X41000D01*
X50000Y35000D02*Y23000D01*
X270000Y145000D02*Y123000D01*
X280000Y145000D02*Y123000D01*
X290000Y145000D02*Y123000D01*
X300000Y145000D02*Y123000D01*
X260000Y164000D02*Y153000D01*
X269000Y154000D02*X291000D01*
X229000D02*X251000D01*
X269000Y164000D02*X291000D01*
X229000D02*X251000D01*
X239000Y144000D02*X261000D01*
X239000Y134000D02*X261000D01*
X239000Y124000D02*X261000D01*
X310000Y145000D02*Y123000D01*
X320000Y145000D02*Y123000D01*
X289000Y114000D02*X311000D01*
X309000D02*X331000D01*
X299000D02*X321000D01*
X330000Y145000D02*Y123000D01*
X340000Y145000D02*Y123000D01*
X350000Y145000D02*Y123000D01*
X340000Y164000D02*Y153000D01*
X300000Y164000D02*Y153000D01*
X309000Y164000D02*X331000D01*
X309000Y154000D02*X331000D01*
X230000Y95000D02*Y73000D01*
X220000Y95000D02*Y73000D01*
X230000Y145000D02*Y123000D01*
X210000Y95000D02*Y73000D01*
X200000Y95000D02*Y73000D01*
X189000Y104000D02*X211000D01*
X209000D02*X231000D01*
X189000Y114000D02*X211000D01*
X199000Y124000D02*X221000D01*
X209000Y114000D02*X231000D01*
X190000Y95000D02*Y73000D01*
X189000Y64000D02*X211000D01*
X189000Y54000D02*X211000D01*
X199000Y44000D02*X221000D01*
X199000Y144000D02*X221000D01*
X199000Y134000D02*X221000D01*
X199000Y154000D02*X221000D01*
X199000Y164000D02*X221000D01*
X310000Y95000D02*Y73000D01*
X320000Y95000D02*Y73000D01*
X330000Y95000D02*Y73000D01*
X340000Y95000D02*Y73000D01*
X309000Y104000D02*X331000D01*
X319000D02*X341000D01*
X359308Y203978D02*X381308D01*
X359308Y193978D02*X381308D01*
X359308Y213978D02*X381308D01*
X329000Y214000D02*X351000D01*
X359308Y183978D02*X381308D01*
X359308Y173978D02*X381308D01*
X340186Y194823D02*Y172823D01*
X330000Y195000D02*Y173000D01*
X350186Y194823D02*Y172823D01*
X329000Y204000D02*X351000D01*
X319000Y114000D02*X341000D01*
X339000D02*X361000D01*
X359000D02*X381000D01*
X359308Y163978D02*X381308D01*
X359000Y154000D02*X381000D01*
X359000Y144000D02*X381000D01*
X359000Y134000D02*X381000D01*
X359000Y124000D02*X381000D01*
X350000Y165000D02*Y153000D01*
Y95000D02*Y73000D01*
X339000Y104000D02*X361000D01*
X359000D02*X381000D01*
X359000Y94000D02*X381000D01*
X359000Y84000D02*X381000D01*
X359000Y74000D02*X381000D01*
X359000Y64000D02*X381000D01*
X359000Y54000D02*X381000D01*
X359000Y44000D02*X381000D01*
X350000Y65000D02*Y53000D01*
X359000Y34000D02*X381000D01*
X359000Y24000D02*X381000D01*
X359000Y14000D02*X381000D01*
X329000D02*X351000D01*
X299000D02*X321000D01*
X350000Y45000D02*Y23000D01*
X320000Y45000D02*Y23000D01*
X330000Y45000D02*Y23000D01*
X240000Y95000D02*Y73000D01*
X250000Y95000D02*Y73000D01*
X229000Y104000D02*X251000D01*
X249000D02*X271000D01*
X269000D02*X291000D01*
X229000Y114000D02*X251000D01*
X249000D02*X271000D01*
X269000D02*X291000D01*
X280000Y95000D02*Y73000D01*
X290000Y95000D02*Y73000D01*
X300000Y95000D02*Y73000D01*
X289000Y104000D02*X311000D01*
X299000D02*X321000D01*
X260000Y95000D02*Y73000D01*
X270000Y95000D02*Y73000D01*
X261000Y64000D02*Y53000D01*
X340000Y64000D02*Y53000D01*
Y45000D02*Y23000D01*
X309000Y54000D02*X331000D01*
X309000Y64000D02*X331000D01*
X229000D02*X251000D01*
X229000Y54000D02*X251000D01*
X269000Y14000D02*X291000D01*
X280000Y45000D02*Y23000D01*
X229000Y44000D02*X241000D01*
X249000D02*X261000D01*
X300000Y64000D02*Y53000D01*
X269000Y64000D02*X291000D01*
X269000Y54000D02*X291000D01*
X289000Y34000D02*X311000D01*
X289000Y44000D02*X311000D01*
X289000Y24000D02*X311000D01*
X270000Y45000D02*Y23000D01*
G54D16*X11000Y108000D03*
G54D17*G54D18*M02*
